{
  "photos": {
    "page": 1,
    "pages": 10,
    "perpage": 100,
    "total": 1000,
    "photo": [
      {
        "id": "53848926672",
        "owner": "144522467@N08",
        "secret": "1e81ec97d3",
        "server": "65535",
        "farm": 66,
        "title": "",
        "ispublic": 1,
        "isfriend": 0,
        "isfamily": 0
      },
      {
        "id": "53848927582",
        "owner": "194737810@N06",
        "secret": "583ea99d3c",
        "server": "65535",
        "farm": 66,
        "title": "IMG_20240710_065458~2_1720680216797",
        "ispublic": 1,
        "isfriend": 0,
        "isfamily": 0
      },
      {
        "id": "53848929232",
        "owner": "60269086@N05",
        "secret": "4024bd4471",
        "server": "65535",
        "farm": 66,
        "title": "Protea",
        "ispublic": 1,
        "isfriend": 0,
        "isfamily": 0
      },
      {
        "id": "53848931067",
        "owner": "194560531@N04",
        "secret": "0ca17b48cb",
        "server": "65535",
        "farm": 66,
        "title": "Screenshot_2024-07-11-14-59-28-675_com.google.android.apps.photos",
        "ispublic": 1,
        "isfriend": 0,
        "isfamily": 0
      },
      {
        "id": "53848932827",
        "owner": "186704385@N06",
        "secret": "9c88c826d7",
        "server": "65535",
        "farm": 66,
        "title": "Diffusore paraurti posteriore Piano Black Black Black Spoiler Spot Muffler Suggerimento per BMW 3 Se",
        "ispublic": 1,
        "isfriend": 0,
        "isfamily": 0
      },
      {
        "id": "53848934732",
        "owner": "49539986@N04",
        "secret": "18acb6c304",
        "server": "65535",
        "farm": 66,
        "title": "",
        "ispublic": 1,
        "isfriend": 0,
        "isfamily": 0
      },
      {
        "id": "53848934912",
        "owner": "200480440@N02",
        "secret": "8e48307424",
        "server": "65535",
        "farm": 66,
        "title": "Dias ordinários fazem momentos extraordinários",
        "ispublic": 1,
        "isfriend": 0,
        "isfamily": 0
      },
      {
        "id": "53848935627",
        "owner": "185897100@N04",
        "secret": "8d9e1f0134",
        "server": "65535",
        "farm": 66,
        "title": "",
        "ispublic": 1,
        "isfriend": 0,
        "isfamily": 0
      },
      {
        "id": "53848938622",
        "owner": "193854839@N07",
        "secret": "c42a527cd8",
        "server": "65535",
        "farm": 66,
        "title": "That rave gave me a headache.",
        "ispublic": 1,
        "isfriend": 0,
        "isfamily": 0
      },
      {
        "id": "53848938972",
        "owner": "195827112@N07",
        "secret": "113d3e1d67",
        "server": "65535",
        "farm": 66,
        "title": "",
        "ispublic": 1,
        "isfriend": 0,
        "isfamily": 0
      },
      {
        "id": "53848939557",
        "owner": "47991007@N02",
        "secret": "99a1600526",
        "server": "65535",
        "farm": 66,
        "title": "",
        "ispublic": 1,
        "isfriend": 0,
        "isfamily": 0
      },
      {
        "id": "53848939632",
        "owner": "194797554@N02",
        "secret": "5b38d2144f",
        "server": "65535",
        "farm": 66,
        "title": "功德主：故 王歐金桃(calclight2024-09-17)",
        "ispublic": 1,
        "isfriend": 0,
        "isfamily": 0
      },
      {
        "id": "53848940257",
        "owner": "193409916@N08",
        "secret": "a284dfee3c",
        "server": "65535",
        "farm": 66,
        "title": "",
        "ispublic": 1,
        "isfriend": 0,
        "isfamily": 0
      },
      {
        "id": "53848944632",
        "owner": "63479603@N00",
        "secret": "4b10086169",
        "server": "65535",
        "farm": 66,
        "title": "Calothamnus gilesii",
        "ispublic": 1,
        "isfriend": 0,
        "isfamily": 0
      },
      {
        "id": "53848945212",
        "owner": "196257720@N08",
        "secret": "9140b1e9f8",
        "server": "65535",
        "farm": 66,
        "title": "IMG_20240711_152247~2",
        "ispublic": 1,
        "isfriend": 0,
        "isfamily": 0
      },
      {
        "id": "53848945647",
        "owner": "201034492@N07",
        "secret": "d187afcf53",
        "server": "65535",
        "farm": 66,
        "title": "IMG_20240612_153830",
        "ispublic": 1,
        "isfriend": 0,
        "isfamily": 0
      },
      {
        "id": "53849815716",
        "owner": "166436185@N07",
        "secret": "95f2c58709",
        "server": "65535",
        "farm": 66,
        "title": "Column repair",
        "ispublic": 1,
        "isfriend": 0,
        "isfamily": 0
      },
      {
        "id": "53849816001",
        "owner": "200280156@N07",
        "secret": "b82ff2954c",
        "server": "65535",
        "farm": 66,
        "title": "Last_Epoch_YuOHyLKc1G",
        "ispublic": 1,
        "isfriend": 0,
        "isfamily": 0
      },
      {
        "id": "53849817696",
        "owner": "22104733@N06",
        "secret": "610bf70505",
        "server": "65535",
        "farm": 66,
        "title": "Beating the summer heat.",
        "ispublic": 1,
        "isfriend": 0,
        "isfamily": 0
      },
      {
        "id": "53849818931",
        "owner": "97102756@N07",
        "secret": "14798c4480",
        "server": "65535",
        "farm": 66,
        "title": "N-2024-07-11-2300_f",
        "ispublic": 1,
        "isfriend": 0,
        "isfamily": 0
      },
      {
        "id": "53849819976",
        "owner": "200895888@N03",
        "secret": "4210731b42",
        "server": "65535",
        "farm": 66,
        "title": "Torreense Signs Spaniard Javi Vásquez And Announces Game With Sporting",
        "ispublic": 1,
        "isfriend": 0,
        "isfamily": 0
      },
      {
        "id": "53849820021",
        "owner": "32216705@N05",
        "secret": "f11be34117",
        "server": "65535",
        "farm": 66,
        "title": "",
        "ispublic": 1,
        "isfriend": 0,
        "isfamily": 0
      },
      {
        "id": "53849820476",
        "owner": "199587845@N04",
        "secret": "e3b19e65b7",
        "server": "65535",
        "farm": 66,
        "title": "",
        "ispublic": 1,
        "isfriend": 0,
        "isfamily": 0
      },
      {
        "id": "53849821066",
        "owner": "79805131@N08",
        "secret": "99ac8bf115",
        "server": "65535",
        "farm": 66,
        "title": "Vacances23_2310059",
        "ispublic": 1,
        "isfriend": 0,
        "isfamily": 0
      },
      {
        "id": "53849821101",
        "owner": "201100438@N08",
        "secret": "c2d87a4c0c",
        "server": "65535",
        "farm": 66,
        "title": "UbbuIvuBeE",
        "ispublic": 1,
        "isfriend": 0,
        "isfamily": 0
      },
      {
        "id": "53849821156",
        "owner": "53439027@N08",
        "secret": "898c86b639",
        "server": "65535",
        "farm": 66,
        "title": "20240630-IMG_4244-CR3-DxO_DeepPRIME XD2.jpg",
        "ispublic": 1,
        "isfriend": 0,
        "isfamily": 0
      },
      {
        "id": "53849823761",
        "owner": "9276739@N08",
        "secret": "a515b0d6ab",
        "server": "65535",
        "farm": 66,
        "title": "Toyota Camry 2020 hybrid sedan",
        "ispublic": 1,
        "isfriend": 0,
        "isfamily": 0
      },
      {
        "id": "53849823831",
        "owner": "148257302@N03",
        "secret": "6efd37fbe8",
        "server": "65535",
        "farm": 66,
        "title": "",
        "ispublic": 1,
        "isfriend": 0,
        "isfamily": 0
      },
      {
        "id": "53849824466",
        "owner": "65650827@N05",
        "secret": "0139498a58",
        "server": "65535",
        "farm": 66,
        "title": "#SONY #ILCE7M2 #a7ii #Sonyimages #50mm #lomography #lomoartlens #lomo #newJupiter3 #botanical  #plant #plantart #botanicalphotography #botanicalart #bokeh #Depthoffield #dof #Asia #Tokyo #Japan #吉祥寺 #井の頭恩賜公園 #武蔵野市 #shinikegamigreen",
        "ispublic": 1,
        "isfriend": 0,
        "isfamily": 0
      },
      {
        "id": "53849825151",
        "owner": "92627106@N02",
        "secret": "ba9a43e144",
        "server": "65535",
        "farm": 66,
        "title": "CommMiniBus Volvo B7RLE (Wright Eclipse) M121 PAK (MX06 VPG)",
        "ispublic": 1,
        "isfriend": 0,
        "isfamily": 0
      },
      {
        "id": "53849825736",
        "owner": "100907765@N08",
        "secret": "9df1a79f13",
        "server": "65535",
        "farm": 66,
        "title": "July 07, 2024.jpg",
        "ispublic": 1,
        "isfriend": 0,
        "isfamily": 0
      },
      {
        "id": "53849825961",
        "owner": "200584197@N02",
        "secret": "c4a9dbab1f",
        "server": "65535",
        "farm": 66,
        "title": "NFS Unbound",
        "ispublic": 1,
        "isfriend": 0,
        "isfamily": 0
      },
      {
        "id": "53849826056",
        "owner": "200805772@N03",
        "secret": "29acd3bf23",
        "server": "65535",
        "farm": 66,
        "title": "OrcaLoddy Wallpaper thing",
        "ispublic": 1,
        "isfriend": 0,
        "isfamily": 0
      },
      {
        "id": "53849829731",
        "owner": "200634239@N04",
        "secret": "580a5129dd",
        "server": "65535",
        "farm": 66,
        "title": "r3gkBgNyBy",
        "ispublic": 1,
        "isfriend": 0,
        "isfamily": 0
      },
      {
        "id": "53849832621",
        "owner": "200199782@N06",
        "secret": "453200f973",
        "server": "65535",
        "farm": 66,
        "title": "FiveM_b3095_GTAProcess_uCwU9HuFbQ",
        "ispublic": 1,
        "isfriend": 0,
        "isfamily": 0
      },
      {
        "id": "53849833476",
        "owner": "196283865@N06",
        "secret": "5e4fef1a43",
        "server": "65535",
        "farm": 66,
        "title": "Keolis Vélizy Vallée de la Bièvre - GX337 ELEC - 743 / 201187 - bus ligne 6124",
        "ispublic": 1,
        "isfriend": 0,
        "isfamily": 0
      },
      {
        "id": "53849833661",
        "owner": "99322323@N06",
        "secret": "1f3d030a74",
        "server": "65535",
        "farm": 66,
        "title": "",
        "ispublic": 1,
        "isfriend": 0,
        "isfamily": 0
      },
      {
        "id": "53849834196",
        "owner": "58831337@N03",
        "secret": "f5d717775f",
        "server": "65535",
        "farm": 66,
        "title": "002_FloorballPG.jpg",
        "ispublic": 1,
        "isfriend": 0,
        "isfamily": 0
      },
      {
        "id": "53849834231",
        "owner": "201040093@N07",
        "secret": "08010fd836",
        "server": "65535",
        "farm": 66,
        "title": "9bf77b91d840ffcfdd03236d120500ec",
        "ispublic": 1,
        "isfriend": 0,
        "isfamily": 0
      },
      {
        "id": "53849834291",
        "owner": "195526098@N06",
        "secret": "ff583d2da0",
        "server": "65535",
        "farm": 66,
        "title": "SBS6865H 48",
        "ispublic": 1,
        "isfriend": 0,
        "isfamily": 0
      },
      {
        "id": "53849834366",
        "owner": "201022254@N07",
        "secret": "789ded7709",
        "server": "65535",
        "farm": 66,
        "title": "",
        "ispublic": 1,
        "isfriend": 0,
        "isfamily": 0
      },
      {
        "id": "53849834391",
        "owner": "124897156@N06",
        "secret": "fb9c6b40fb",
        "server": "65535",
        "farm": 66,
        "title": "小車",
        "ispublic": 1,
        "isfriend": 0,
        "isfamily": 0
      },
      {
        "id": "53850076103",
        "owner": "49080998@N07",
        "secret": "911d183808",
        "server": "65535",
        "farm": 66,
        "title": "Bear",
        "ispublic": 1,
        "isfriend": 0,
        "isfamily": 0
      },
      {
        "id": "53850080188",
        "owner": "193047294@N04",
        "secret": "58e1a0901a",
        "server": "65535",
        "farm": 66,
        "title": "Khổ luyện",
        "ispublic": 1,
        "isfriend": 0,
        "isfamily": 0
      },
      {
        "id": "53850080203",
        "owner": "149567335@N07",
        "secret": "a4240678a6",
        "server": "65535",
        "farm": 66,
        "title": "N-2024-07-11-2300_f",
        "ispublic": 1,
        "isfriend": 0,
        "isfamily": 0
      },
      {
        "id": "53850080608",
        "owner": "185288333@N07",
        "secret": "20b74e1641",
        "server": "65535",
        "farm": 66,
        "title": "N-2024-07-11-2300_f",
        "ispublic": 1,
        "isfriend": 0,
        "isfamily": 0
      },
      {
        "id": "53850080808",
        "owner": "129711811@N05",
        "secret": "3e92cb858f",
        "server": "65535",
        "farm": 66,
        "title": "Team Livingston's 2 Porsche entries. #motherlode400 #porsche911 #porsche356 #vintagerally",
        "ispublic": 1,
        "isfriend": 0,
        "isfamily": 0
      },
      {
        "id": "53850081858",
        "owner": "191307590@N03",
        "secret": "99a1025fbc",
        "server": "65535",
        "farm": 66,
        "title": "",
        "ispublic": 1,
        "isfriend": 0,
        "isfamily": 0
      },
      {
        "id": "53850082088",
        "owner": "197397035@N07",
        "secret": "ac954e898c",
        "server": "65535",
        "farm": 66,
        "title": "snapshot",
        "ispublic": 1,
        "isfriend": 0,
        "isfamily": 0
      },
      {
        "id": "53850082668",
        "owner": "24510419@N06",
        "secret": "299e071226",
        "server": "65535",
        "farm": 66,
        "title": "Raindrop Covered Leaf",
        "ispublic": 1,
        "isfriend": 0,
        "isfamily": 0
      },
      {
        "id": "53850082928",
        "owner": "200962459@N08",
        "secret": "6532ab30b5",
        "server": "65535",
        "farm": 66,
        "title": "Discord_maT6pcJWfM",
        "ispublic": 1,
        "isfriend": 0,
        "isfamily": 0
      },
      {
        "id": "53850084058",
        "owner": "184293233@N07",
        "secret": "45322d3f16",
        "server": "65535",
        "farm": 66,
        "title": "",
        "ispublic": 1,
        "isfriend": 0,
        "isfamily": 0
      },
      {
        "id": "53850085578",
        "owner": "200826359@N05",
        "secret": "e454ffebb3",
        "server": "65535",
        "farm": 66,
        "title": "Είναι κάποιοι άνθρωποι....",
        "ispublic": 1,
        "isfriend": 0,
        "isfamily": 0
      },
      {
        "id": "53850087968",
        "owner": "165854229@N02",
        "secret": "828817aeec",
        "server": "65535",
        "farm": 66,
        "title": "Noodle needer",
        "ispublic": 1,
        "isfriend": 0,
        "isfamily": 0
      },
      {
        "id": "53850088008",
        "owner": "97637500@N00",
        "secret": "b40bba305a",
        "server": "65535",
        "farm": 66,
        "title": "38:61 Theme: Maps I’ve had the map washi tape for at least 10 years. Each year, I make at least one ICAD with the tape. @indexcardaday For info on ICAD check out @gypsy999 she is our amazing hostess!   #creativeeveryday #365somethings2024 #dyicad2024 #doi",
        "ispublic": 1,
        "isfriend": 0,
        "isfamily": 0
      },
      {
        "id": "53850088243",
        "owner": "198987691@N06",
        "secret": "791ea1c164",
        "server": "65535",
        "farm": 66,
        "title": "Sunrail P325 flys by CSX Taft Yard with some evening storms rolling in… | 12/20/23",
        "ispublic": 1,
        "isfriend": 0,
        "isfamily": 0
      },
      {
        "id": "53850090243",
        "owner": "63008868@N08",
        "secret": "54f6f5db40",
        "server": "65535",
        "farm": 66,
        "title": "",
        "ispublic": 1,
        "isfriend": 0,
        "isfamily": 0
      },
      {
        "id": "53850090583",
        "owner": "196440316@N03",
        "secret": "a976a278e8",
        "server": "65535",
        "farm": 66,
        "title": "Adobe Scan 11.07.2024 (1)_1",
        "ispublic": 1,
        "isfriend": 0,
        "isfamily": 0
      },
      {
        "id": "53850091573",
        "owner": "99562773@N07",
        "secret": "c7b69386e0",
        "server": "65535",
        "farm": 66,
        "title": "",
        "ispublic": 1,
        "isfriend": 0,
        "isfamily": 0
      },
      {
        "id": "53850092073",
        "owner": "200464882@N03",
        "secret": "a25ed929c6",
        "server": "65535",
        "farm": 66,
        "title": "Medal_BNKu6JFIi5",
        "ispublic": 1,
        "isfriend": 0,
        "isfamily": 0
      },
      {
        "id": "53850092183",
        "owner": "200869098@N04",
        "secret": "d378f207ca",
        "server": "65535",
        "farm": 66,
        "title": "FiveM_b2944_GTAProcess_V8MXEnEDZT",
        "ispublic": 1,
        "isfriend": 0,
        "isfamily": 0
      },
      {
        "id": "53850093198",
        "owner": "18583152@N03",
        "secret": "308a9bc2c5",
        "server": "65535",
        "farm": 66,
        "title": "",
        "ispublic": 1,
        "isfriend": 0,
        "isfamily": 0
      },
      {
        "id": "53850185404",
        "owner": "111208088@N03",
        "secret": "b4e387b43d",
        "server": "65535",
        "farm": 66,
        "title": "",
        "ispublic": 1,
        "isfriend": 0,
        "isfamily": 0
      },
      {
        "id": "53850185929",
        "owner": "46345011@N05",
        "secret": "af5789b394",
        "server": "65535",
        "farm": 66,
        "title": "193. Hike #28/52 Wasatch Nature Trail",
        "ispublic": 1,
        "isfriend": 0,
        "isfamily": 0
      },
      {
        "id": "53850189324",
        "owner": "198578356@N08",
        "secret": "30faecffbe",
        "server": "65535",
        "farm": 66,
        "title": "Big shuttle bus today.",
        "ispublic": 1,
        "isfriend": 0,
        "isfamily": 0
      },
      {
        "id": "53850189799",
        "owner": "20025916@N00",
        "secret": "eceaabb9c9",
        "server": "65535",
        "farm": 66,
        "title": "Team Livingston's 2 Porsche entries. #motherlode400 #porsche911 #porsche356 #vintagerally",
        "ispublic": 1,
        "isfriend": 0,
        "isfamily": 0
      },
      {
        "id": "53850189989",
        "owner": "54989697@N02",
        "secret": "aa06848879",
        "server": "65535",
        "farm": 66,
        "title": "Goizean eguraldi bikaina Bermeon",
        "ispublic": 1,
        "isfriend": 0,
        "isfamily": 0
      },
      {
        "id": "53850190224",
        "owner": "69506664@N06",
        "secret": "ee05325d80",
        "server": "65535",
        "farm": 66,
        "title": "2024-04-06_21-42-49_ILCE-7C_DSC11058_Kiri_DxO",
        "ispublic": 1,
        "isfriend": 0,
        "isfamily": 0
      },
      {
        "id": "53850191864",
        "owner": "200577084@N04",
        "secret": "fbcfb38718",
        "server": "65535",
        "farm": 66,
        "title": "FiveM_b2802_GTAProcess_4Ueiss2dTc",
        "ispublic": 1,
        "isfriend": 0,
        "isfamily": 0
      },
      {
        "id": "53850192469",
        "owner": "33672222@N00",
        "secret": "f4349bb667",
        "server": "65535",
        "farm": 66,
        "title": "Singapore launch 2024",
        "ispublic": 1,
        "isfriend": 0,
        "isfamily": 0
      },
      {
        "id": "53850192544",
        "owner": "200892668@N08",
        "secret": "74b90131e4",
        "server": "65535",
        "farm": 66,
        "title": "chrome_aDhPvwquDR",
        "ispublic": 1,
        "isfriend": 0,
        "isfamily": 0
      },
      {
        "id": "53850192649",
        "owner": "157881463@N08",
        "secret": "181bb658bf",
        "server": "65535",
        "farm": 66,
        "title": "DC, Airport, Arlington",
        "ispublic": 1,
        "isfriend": 0,
        "isfamily": 0
      },
      {
        "id": "53850194799",
        "owner": "82188303@N00",
        "secret": "3e475cb54d",
        "server": "65535",
        "farm": 66,
        "title": "",
        "ispublic": 1,
        "isfriend": 0,
        "isfamily": 0
      },
      {
        "id": "53850195224",
        "owner": "200234409@N08",
        "secret": "3b1bbdbc6b",
        "server": "65535",
        "farm": 66,
        "title": "Frente Parlamentar Pop Rua_Dep Fernando Mineiro_10.07.24_Fotos Vinicioz Bórba",
        "ispublic": 1,
        "isfriend": 0,
        "isfamily": 0
      },
      {
        "id": "53850196209",
        "owner": "63018044@N02",
        "secret": "09b1571fc7",
        "server": "65535",
        "farm": 66,
        "title": "Geersdijk",
        "ispublic": 1,
        "isfriend": 0,
        "isfamily": 0
      },
      {
        "id": "53850196554",
        "owner": "47911905@N00",
        "secret": "6e01101d4e",
        "server": "65535",
        "farm": 66,
        "title": "",
        "ispublic": 1,
        "isfriend": 0,
        "isfamily": 0
      },
      {
        "id": "53850197404",
        "owner": "198159407@N06",
        "secret": "b30d6ecdef",
        "server": "65535",
        "farm": 66,
        "title": "",
        "ispublic": 1,
        "isfriend": 0,
        "isfamily": 0
      },
      {
        "id": "53850197474",
        "owner": "200986315@N06",
        "secret": "2ec59302f9",
        "server": "65535",
        "farm": 66,
        "title": "_U6A8591.jpg",
        "ispublic": 1,
        "isfriend": 0,
        "isfamily": 0
      },
      {
        "id": "53850197519",
        "owner": "130708126@N02",
        "secret": "c0d3e5c024",
        "server": "65535",
        "farm": 66,
        "title": "Pie-grièche écorcheur ( Lanius collurio )-2.jpg",
        "ispublic": 1,
        "isfriend": 0,
        "isfamily": 0
      },
      {
        "id": "53850252190",
        "owner": "132008772@N02",
        "secret": "c39d505914",
        "server": "65535",
        "farm": 66,
        "title": "Christopher Columbus Monument Base. Hartford, Connecticut.",
        "ispublic": 1,
        "isfriend": 0,
        "isfamily": 0
      },
      {
        "id": "53850253840",
        "owner": "39085141@N00",
        "secret": "304e34e99f",
        "server": "65535",
        "farm": 66,
        "title": "IMG_2649",
        "ispublic": 1,
        "isfriend": 0,
        "isfamily": 0
      },
      {
        "id": "53850254160",
        "owner": "194756985@N07",
        "secret": "00a6d78442",
        "server": "65535",
        "farm": 66,
        "title": "Victorinox Tinker Small  #victorinox #myvictorinox #leafvics",
        "ispublic": 1,
        "isfriend": 0,
        "isfamily": 0
      },
      {
        "id": "53850258385",
        "owner": "163764025@N08",
        "secret": "8bcb03d855",
        "server": "65535",
        "farm": 66,
        "title": "Upper Darby, PA native John Cappelletti is the only Penn State football player to have received the coveted Heisman Trophy. In 1973, his heroics as a tailback for the Nittany Lions helped them to finish their season undefeated and ranked fifth in the nati",
        "ispublic": 1,
        "isfriend": 0,
        "isfamily": 0
      },
      {
        "id": "53850260205",
        "owner": "152386432@N04",
        "secret": "58db169d02",
        "server": "65535",
        "farm": 66,
        "title": "80292",
        "ispublic": 1,
        "isfriend": 0,
        "isfamily": 0
      },
      {
        "id": "53850260270",
        "owner": "51433704@N06",
        "secret": "e744487a94",
        "server": "65535",
        "farm": 66,
        "title": "Snowy Egret",
        "ispublic": 1,
        "isfriend": 0,
        "isfamily": 0
      },
      {
        "id": "53850260360",
        "owner": "188678939@N06",
        "secret": "258e122439",
        "server": "65535",
        "farm": 66,
        "title": "Gatekeeper butterfly",
        "ispublic": 1,
        "isfriend": 0,
        "isfamily": 0
      },
      {
        "id": "53850260445",
        "owner": "200254143@N02",
        "secret": "386eae0a31",
        "server": "65535",
        "farm": 66,
        "title": "Discord_kRs8GVi9Wt",
        "ispublic": 1,
        "isfriend": 0,
        "isfamily": 0
      },
      {
        "id": "53850260490",
        "owner": "196310680@N04",
        "secret": "295ce6c50e",
        "server": "65535",
        "farm": 66,
        "title": "",
        "ispublic": 1,
        "isfriend": 0,
        "isfamily": 0
      },
      {
        "id": "53850260615",
        "owner": "201008994@N05",
        "secret": "2e03e60dd5",
        "server": "65535",
        "farm": 66,
        "title": "Red Carpet",
        "ispublic": 1,
        "isfriend": 0,
        "isfamily": 0
      },
      {
        "id": "53850263050",
        "owner": "200864050@N03",
        "secret": "70e7d65e91",
        "server": "65535",
        "farm": 66,
        "title": "Fabric Line Drawing",
        "ispublic": 1,
        "isfriend": 0,
        "isfamily": 0
      },
      {
        "id": "53850264040",
        "owner": "46199878@N05",
        "secret": "6cdbbca5f9",
        "server": "65535",
        "farm": 66,
        "title": "Feather",
        "ispublic": 1,
        "isfriend": 0,
        "isfamily": 0
      },
      {
        "id": "53850264200",
        "owner": "94853730@N00",
        "secret": "8e23e1a8f7",
        "server": "65535",
        "farm": 66,
        "title": "",
        "ispublic": 1,
        "isfriend": 0,
        "isfamily": 0
      },
      {
        "id": "53850265295",
        "owner": "72196571@N06",
        "secret": "84cecd6c37",
        "server": "65535",
        "farm": 66,
        "title": "We walked through the garden  #Portland #Oregon #rose #roses #OregonExplored #Oregon #InternationalRoseTestGarden",
        "ispublic": 1,
        "isfriend": 0,
        "isfamily": 0
      },
      {
        "id": "53850265630",
        "owner": "194700112@N07",
        "secret": "b78bd43b8c",
        "server": "65535",
        "farm": 66,
        "title": "As of July 3rd, I have acquired DM&IR 2-10-2 #508 in HO scale. I’ve always wanted a DMIR steamer for HO, but never had the money. Shout out to dad for getting me it for my birthday. July 2nd was my birthday.",
        "ispublic": 1,
        "isfriend": 0,
        "isfamily": 0
      },
      {
        "id": "53850265670",
        "owner": "7455170@N07",
        "secret": "3904b7e81e",
        "server": "65535",
        "farm": 66,
        "title": "",
        "ispublic": 1,
        "isfriend": 0,
        "isfamily": 0
      },
      {
        "id": "53850270815",
        "owner": "200574627@N04",
        "secret": "2bd13cc58d",
        "server": "65535",
        "farm": 66,
        "title": "msedge_rFvZqG9ZKx",
        "ispublic": 1,
        "isfriend": 0,
        "isfamily": 0
      },
      {
        "id": "53850270855",
        "owner": "53341640@N08",
        "secret": "3a6a649b98",
        "server": "65535",
        "farm": 66,
        "title": "Cala Tramariglio",
        "ispublic": 1,
        "isfriend": 0,
        "isfamily": 0
      },
      {
        "id": "53850271640",
        "owner": "197671672@N02",
        "secret": "4965b7602f",
        "server": "65535",
        "farm": 66,
        "title": "Sonnenaufgang in der Karlsaue",
        "ispublic": 1,
        "isfriend": 0,
        "isfamily": 0
      },
      {
        "id": "53850271860",
        "owner": "154846533@N04",
        "secret": "57974659cd",
        "server": "65535",
        "farm": 66,
        "title": "Trommelfeuer",
        "ispublic": 1,
        "isfriend": 0,
        "isfamily": 0
      },
      {
        "id": "53850272645",
        "owner": "12639178@N07",
        "secret": "bb2cbed394",
        "server": "65535",
        "farm": 66,
        "title": "P. tithonus",
        "ispublic": 1,
        "isfriend": 0,
        "isfamily": 0
      }
    ]
  },
  "stat": "ok"
}